/* XPM */
static char *edit_xpm[] = {
/* columns rows colors chars-per-pixel */
"24 24 53 1",
"  c Gray0",
". c #060606060505",
"X c #757560602020",
"o c Gray43",
"O c #7e7e7e7e7171",
"+ c #8e8e7d7d4545",
"@ c #a8a84f4f4f4f",
"# c #a6a653535353",
"$ c #a6a657575757",
"% c #acac57575757",
"& c #abab59595959",
"* c #aaaa6c6c6c6c",
"= c #adad8e8e3030",
"- c #818181817474",
"; c #828282827979",
": c #8b8b8b8b7d7d",
"> c Gray53",
", c #9b9b9b9b9b9b",
"< c #a3a3a3a39595",
"1 c #a7a7a7a79a9a",
"2 c #a7a7a7a7a7a7",
"3 c #b2b2b9b9b6b6",
"4 c #c4c48b8b8b8b",
"5 c #d4d4c3c38d8d",
"6 c #dcdccbcb9494",
"7 c #c0c0c0c0bbbb",
"8 c #c5c5c5c5bfbf",
"9 c #c1c1c1c1c1c1",
"0 c #c6c6c6c6c6c6",
"q c Gray78",
"w c #c8c8c8c8c8c8",
"e c #cdcdcdcdcdcd",
"r c #cececececece",
"t c Gray81",
"y c #dadacacacaca",
"u c #d6d6d6d6d0d0",
"i c Gray83",
"p c #d9d9d9d9d2d2",
"a c #d9d9d9d9d3d3",
"s c #dadadadad4d4",
"d c Gray85",
"f c #dadadadad9d9",
"g c #dadadadadada",
"h c Gray86",
"j c gainsboro",
"k c #d6d6e1e1e0e0",
"l c #dfdfe1e1e1e1",
"z c #e9e9dddddddd",
"x c #e4e4e4e4e4e4",
"c c Gray90",
"v c #f3f3f3f3f3f3",
"b c Gray96",
"n c None",
/* pixels */
"nnnnnnnnnnnnnnnnnnnnnnnn",
"nnnnnnnnnnnnnnnnnnnnnnnn",
"nnnnnnnnnnnnnnnnnnnnnnnn",
"nnnnnnnnnnnnn  nnnnnnnnn",
"nnnnnnnnnnn  cr nnnnn nn",
"nnnnnnnnn  eccc nnnn 6 n",
"nnnnnn   jcccccq nn 6+ n",
"nnnn  ecccctc9cc n 6+ nn",
"nnn jcccc&cdct>ch 6+ nnn",
"nnn icccc@2c,>cc 6+ nnnn",
"nnnn ccbv$coccc 6+ nnnnn",
"nnnn jy%4*cccc 6+ d nnnn",
"nnnnn cz#$ccc 6+ tc0 nnn",
"nnnnn iccccc 5+ dxu7; nn",
"nnnnnn cccb=X  81111- nn",
"nnnnnn jclk. <<1111w nnn",
"nnnnnnn c1:O3pascf  nnnn",
"nnnnnnn icccccccw nnnnnn",
"nnnnnnnn cccccc  nnnnnnn",
"nnnnnnnn jcccw nnnnnnnnn",
"nnnnnnnnn cg  nnnnnnnnnn",
"nnnnnnnnnn  nnnnnnnnnnnn",
"nnnnnnnnnnnnnnnnnnnnnnnn",
"nnnnnnnnnnnnnnnnnnnnnnnn"
};
