/* XPM */
const static char * eye_xpm[] = {
"34 35 176 2",
"  	c None",
". 	c #C0C0C0",
"+ 	c #D0D0D0",
"@ 	c #D3D3D3",
"# 	c #D5D5D5",
"$ 	c #D4D4D4",
"% 	c #D1D1D1",
"& 	c #C3C3C3",
"* 	c #BEBEBE",
"= 	c #D2D2D2",
"- 	c #D7D7D7",
"; 	c #DADADA",
"> 	c #DCDCDC",
", 	c #DDDDDD",
"' 	c #DBDBDB",
") 	c #D9D9D9",
"! 	c #C4C4C4",
"~ 	c #C7C7C7",
"{ 	c #D6D6D6",
"] 	c #DEDEDE",
"^ 	c #E1E1E1",
"/ 	c #E3E3E3",
"( 	c #E4E4E4",
"_ 	c #E2E2E2",
": 	c #E0E0E0",
"< 	c #D8D8D8",
"[ 	c #CACACA",
"} 	c #B5B5B5",
"| 	c #E5E5E5",
"1 	c #E9E9E9",
"2 	c #EBEBEB",
"3 	c #ECECEC",
"4 	c #EAEAEA",
"5 	c #E7E7E7",
"6 	c #A9A9A9",
"7 	c #E8E8E8",
"8 	c #EDEDED",
"9 	c #F0F0F0",
"0 	c #F3F3F3",
"a 	c #F4F4F4",
"b 	c #F2F2F2",
"c 	c #EFEFEF",
"d 	c #A5A5A5",
"e 	c #EEEEEE",
"f 	c #F8F8F8",
"g 	c #FBFBFB",
"h 	c #FCFCFC",
"i 	c #FAFAFA",
"j 	c #F6F6F6",
"k 	c #F1F1F1",
"l 	c #565656",
"m 	c #E6E6E6",
"n 	c #F5F5F5",
"o 	c #FEFEFE",
"p 	c #FFFFFF",
"q 	c #FDFDFD",
"r 	c #A3A3A3",
"s 	c #CFCFCF",
"t 	c #F7F7F7",
"u 	c #CCCCCC",
"v 	c #252525",
"w 	c #F9F9F9",
"x 	c #525252",
"y 	c #AAAAAA",
"z 	c #DFDFDF",
"A 	c #F5F6FB",
"B 	c #CCD5EA",
"C 	c #BAC6E0",
"D 	c #C1CFE7",
"E 	c #EBF0F8",
"F 	c #FEFEFF",
"G 	c #6C6C6C",
"H 	c #000000",
"I 	c #E0E6F3",
"J 	c #8497C6",
"K 	c #778EC1",
"L 	c #768FC1",
"M 	c #7C96C6",
"N 	c #7E95C6",
"O 	c #D4DDEE",
"P 	c #797979",
"Q 	c #C8C8C8",
"R 	c #F2F4F9",
"S 	c #8DA1CD",
"T 	c #6B82BA",
"U 	c #738ABE",
"V 	c #879FCC",
"W 	c #8099C9",
"X 	c #7993C3",
"Y 	c #8DA4CE",
"Z 	c #F0F3F9",
"` 	c #828282",
" .	c #BCC8E2",
"..	c #6E88BC",
"+.	c #778FC2",
"@.	c #7B94C4",
"#.	c #718ABE",
"$.	c #7690C1",
"%.	c #839DCA",
"&.	c #C7D2E8",
"*.	c #5F5F5F",
"=.	c #A8A8A8",
"-.	c #9AADD2",
";.	c #7993C4",
">.	c #738DC1",
",.	c #687EAC",
"'.	c #1F232C",
").	c #505E77",
"!.	c #7893C4",
"~.	c #BAC8E2",
"{.	c #454545",
"].	c #898989",
"^.	c #9BAED3",
"/.	c #7D97C6",
"(.	c #7C96C5",
"_.	c #506183",
":.	c #2B323F",
"<.	c #728CBF",
"[.	c #6F89BD",
"}.	c #C0CCE3",
"|.	c #1E1E1E",
"1.	c #A1B1D5",
"2.	c #758FC1",
"3.	c #738CBF",
"4.	c #6D84B3",
"5.	c #404B61",
"6.	c #6579A1",
"7.	c #7892C3",
"8.	c #7C95C6",
"9.	c #DFE4F1",
"0.	c #0C0C0C",
"a.	c #C9C9C9",
"b.	c #DEE4F1",
"c.	c #6F87BD",
"d.	c #6D87BB",
"e.	c #7E98C7",
"f.	c #748DC1",
"g.	c #738CC0",
"h.	c #6D87BC",
"i.	c #A2B2D6",
"j.	c #F7F8F9",
"k.	c #717171",
"l.	c #959595",
"m.	c #778FC1",
"n.	c #758EC0",
"o.	c #7A93C4",
"p.	c #7B95C4",
"q.	c #9DADD3",
"r.	c #F4F5F8",
"s.	c #C2C2C2",
"t.	c #1F1F1F",
"u.	c #EFF2F9",
"v.	c #D1DAEC",
"w.	c #CBD5E8",
"x.	c #E4E9F4",
"y.	c #F9FAFB",
"z.	c #666666",
"A.	c #7D7D7D",
"B.	c #CECECE",
"C.	c #979797",
"D.	c #040404",
"E.	c #8D8D8D",
"F.	c #9E9E9E",
"G.	c #747474",
"H.	c #CBCBCB",
"I.	c #777777",
"J.	c #323232",
"K.	c #929292",
"L.	c #C6C6C6",
"M.	c #949494",
"N.	c #393939",
"O.	c #020202",
"P.	c #1A1A1A",
"Q.	c #434343",
"R.	c #555555",
"S.	c #181818",
"                                                                    ",
"                                                                    ",
"                                                                    ",
"                                                                    ",
"                          . + @ # $ % &                             ",
"                      * = - ; > , > ' ) # !                         ",
"                    ~ { ; ] ^ / ( ( _ : > < [                       ",
"                  } { > ^ | 1 2 3 3 4 5 / ] < [                     ",
"                6 $ > _ 7 8 9 0 a a b c 4 | ] - d                   ",
"                + ; ^ 7 e a f g h h i j k 2 ( > = l                 ",
"              } { ] m e n g o p p p o q f k 1 : - r                 ",
"              s ) _ 2 a g p p p p p p p o t e | ' u v               ",
"              @ , m 9 w o p p p p p p p p h 0 1 ] @ x               ",
"            y # z 4 a q p p p A B C D E F o t 3 : # G H             ",
"            ~ - ^ 3 t o p p I J K L M N O p i e _ { P H             ",
"            Q - _ e w p p R S T U V W X Y Z g c / { ` H             ",
"            Q - _ e i p p  ...+.@.#.$.$.%.&.h c _ # *.H H           ",
"            =.{ _ 8 w p p -.;.>.,.'.).!.X ~.g 8 : @ {.H H           ",
"            ].$ : 2 f p p ^./.(._.H :.<.[.}.f 4 , s |.H             ",
"              + > 7 a o p 1.2.3.4.5.6.7.8.9.a m < } 0.H             ",
"              a.< ( c i p b.c.d.e.f.g.h.i.j.8 : @ k.H H             ",
"              l.= ] 1 a q p B m.n.o.p.q.r.b m ) s.t.H H             ",
"                [ - _ 3 n h p u.v.w.x.y.0 1 , + z.H H H             ",
"                A.B.< _ 2 b f g h i j 9 7 ] @ C.D.H H               ",
"                  E.B.< z m 2 e e 8 1 / ' = F.0.H H H               ",
"                    G.[ @ ) , : : z ' # H.I.0.H H H                 ",
"                      J.K.~ s % = + L.M.N.O.H H H                   ",
"                          P.Q.R.x N.S.O.H H H H                     ",
"                              H H H H H H H                         ",
"                                                                    ",
"                                                                    ",
"                                                                    ",
"                                                                    ",
"                                                                    ",
"                                                                    "};
