/* XPM */
static char * ja_xpm[] = {
"20 21 271 2",
"  	c None",
". 	c #E4CF3E",
"+ 	c #E9CD3D",
"@ 	c #D4B738",
"# 	c #AE942E",
"$ 	c #E9E055",
"% 	c #FEF854",
"& 	c #FDE344",
"* 	c #F9D43F",
"= 	c #F5CE3F",
"- 	c #F3CB3F",
"; 	c #F1C940",
"> 	c #EEC943",
", 	c #E7C847",
"' 	c #BCA63E",
") 	c #F3F25F",
"! 	c #FEF050",
"~ 	c #F9D740",
"{ 	c #EEC93B",
"] 	c #EBC53C",
"^ 	c #E8C23C",
"/ 	c #E7C13E",
"( 	c #E6C241",
"_ 	c #E5C646",
": 	c #E4CA4B",
"< 	c #E1CB50",
"[ 	c #C7B74A",
"} 	c #FEFD63",
"| 	c #FEED4E",
"1 	c #F5D13F",
"2 	c #E9C43A",
"3 	c #E5C13A",
"4 	c #E3BE3B",
"5 	c #E1BC3C",
"6 	c #E1BE3F",
"7 	c #E1C245",
"8 	c #E1C74A",
"9 	c #DECC53",
"0 	c #D7C754",
"a 	c #BBAE4B",
"b 	c #FCFA62",
"c 	c #F3CF3E",
"d 	c #E7C33A",
"e 	c #E2BE39",
"f 	c #E0BB3A",
"g 	c #DFBA3B",
"h 	c #DFBC3F",
"i 	c #DFC144",
"j 	c #DFC54A",
"k 	c #E0CA4F",
"l 	c #DFCC53",
"m 	c #DDCD56",
"n 	c #D7C957",
"o 	c #CABF54",
"p 	c #9E9644",
"q 	c #C4C04A",
"r 	c #FEF04F",
"s 	c #F4D13F",
"t 	c #AF932C",
"u 	c #645419",
"v 	c #B89A31",
"w 	c #DCBA3E",
"x 	c #DDBF43",
"y 	c #DEC449",
"z 	c #DFC94F",
"A 	c #D9C751",
"B 	c #B5A746",
"C 	c #D5C756",
"D 	c #D6CA59",
"E 	c #CDC258",
"F 	c #B5AD50",
"G 	c #706C32",
"H 	c #FEF754",
"I 	c #F8D640",
"J 	c #D7B437",
"K 	c #0A0802",
"L 	c #010100",
"M 	c #3B3211",
"N 	c #DBBD43",
"O 	c #DCC349",
"P 	c #DEC94F",
"Q 	c #504A1E",
"R 	c #000000",
"S 	c #4D4920",
"T 	c #D6CB5C",
"U 	c #CBC25A",
"V 	c #B9B254",
"W 	c #7F7A39",
"X 	c #FDE345",
"Y 	c #EEC83B",
"Z 	c #E5C03A",
"` 	c #DDB939",
" .	c #27210A",
"..	c #574C1B",
"+.	c #DBC248",
"@.	c #DDC74E",
"#.	c #DECB53",
"$.	c #DECE56",
"%.	c #3E3A18",
"&.	c #3B3819",
"*.	c #D4CB5E",
"=.	c #CAC25B",
"-.	c #B6AE51",
";.	c #8A833D",
">.	c #23210F",
",.	c #D4C23A",
"'.	c #EAC53C",
").	c #CDAD3A",
"!.	c #A68F33",
"~.	c #D7BE47",
"{.	c #DCC74E",
"].	c #DCC952",
"^.	c #DDCC56",
"/.	c #DECF5A",
"(.	c #C8BC53",
"_.	c #8A833B",
":.	c #C2B956",
"<.	c #D2C95F",
"[.	c #C4BC58",
"}.	c #ADA54D",
"|.	c #89823C",
"1.	c #272511",
"2.	c #D5BC38",
"3.	c #E0BB3C",
"4.	c #DEBC3F",
"5.	c #DCBE43",
"6.	c #DCCC55",
"7.	c #DFD05A",
"8.	c #DFD25D",
"9.	c #DDD25F",
"0.	c #DAD060",
"a.	c #D5CD60",
"b.	c #C9C15B",
"c.	c #BBB153",
"d.	c #A49B48",
"e.	c #817938",
"f.	c #252210",
"g.	c #D3B637",
"h.	c #E7C13D",
"i.	c #E0BE3F",
"j.	c #DFC044",
"k.	c #DED05A",
"l.	c #E2D45E",
"m.	c #E0D460",
"n.	c #DCD361",
"o.	c #D8CF61",
"p.	c #CFC65D",
"q.	c #C0B655",
"r.	c #B2A84E",
"s.	c #9A9143",
"t.	c #756D32",
"u.	c #1C190B",
"v.	c #E2BF3B",
"w.	c #F0C840",
"x.	c #E5C241",
"y.	c #B6A03B",
"z.	c #342E11",
"A.	c #D3C14F",
"B.	c #DECD56",
"C.	c #DED462",
"D.	c #DAD162",
"E.	c #CBC25B",
"F.	c #B4AB50",
"G.	c #B6AC50",
"H.	c #A79C48",
"I.	c #8C823C",
"J.	c #615927",
"K.	c #0E0D05",
"L.	c #947C27",
"M.	c #EDC943",
"N.	c #E4C546",
"O.	c #C1AE44",
"P.	c #030301",
"Q.	c #665F27",
"R.	c #DDD05C",
"S.	c #DCD261",
"T.	c #CEC55C",
"U.	c #43401E",
"V.	c #282511",
"W.	c #ABA14A",
"X.	c #978D40",
"Y.	c #7A7032",
"Z.	c #433D1A",
"`.	c #302B11",
" +	c #E3C94B",
".+	c #72692C",
"++	c #585224",
"@+	c #C0B652",
"#+	c #D6CE61",
"$+	c #AFA74E",
"%+	c #373518",
"&+	c #716A31",
"*+	c #9D9243",
"=+	c #847936",
"-+	c #615826",
";+	c #1F1C0B",
">+	c #B8A33D",
",+	c #DFCA4F",
"'+	c #DACC58",
")+	c #7F7835",
"!+	c #0C0C05",
"~+	c #161509",
"{+	c #121208",
"]+	c #020200",
"^+	c #121107",
"/+	c #766E33",
"(+	c #9E9343",
"_+	c #887E38",
":+	c #6D632B",
"<+	c #3E3717",
"[+	c #121006",
"}+	c #C5B449",
"|+	c #D5C553",
"1+	c #D6C856",
"2+	c #D5C859",
"3+	c #D5CA5B",
"4+	c #C7BE58",
"5+	c #847E3B",
"6+	c #645F2C",
"7+	c #605B2A",
"8+	c #787235",
"9+	c #A29846",
"0+	c #887D38",
"a+	c #6E642B",
"b+	c #49411B",
"c+	c #0F0D05",
"d+	c #B4A849",
"e+	c #C7BB53",
"f+	c #CBC057",
"g+	c #CAC159",
"h+	c #C8C15A",
"i+	c #C2BA57",
"j+	c #BAB153",
"k+	c #B1A74E",
"l+	c #A59B48",
"m+	c #968B40",
"n+	c #827835",
"o+	c #6C622A",
"p+	c #47401B",
"q+	c #141207",
"r+	c #080702",
"s+	c #7D7634",
"t+	c #938C3F",
"u+	c #B0A84E",
"v+	c #B6AF52",
"w+	c #B3AB50",
"x+	c #ABA34C",
"y+	c #A29947",
"z+	c #988E42",
"A+	c #8A803B",
"B+	c #776E31",
"C+	c #5F5625",
"D+	c #3A3415",
"E+	c #0E0C05",
"F+	c #1E1A09",
"G+	c #67632E",
"H+	c #6D6931",
"I+	c #807939",
"J+	c #827A39",
"K+	c #7A7335",
"L+	c #6E662F",
"M+	c #5A5225",
"N+	c #3A3517",
"O+	c #191609",
"P+	c #110F05",
"Q+	c #7F7838",
"R+	c #4E4922",
"S+	c #383418",
"T+	c #302C13",
"U+	c #2D2911",
"V+	c #4E451C",
"                . + @ #                 ",
"          $ % & * = - ; > , '           ",
"        ) ! ~ { ] ^ / ( _ : < [         ",
"      } | 1 2 3 4 5 6 7 8 < 9 0 a       ",
"    b | c d e f g h i j k l m n o p     ",
"  q r s d t u v w x y z A B C D E F G   ",
"  H I 2 J K L M N O P l Q R S T U V W   ",
"  X Y Z `  .L ..+.@.#.$.%.R &.*.=.-.;.>.",
",.* '.4 g ).!.~.{.].^./.(._.:.<.[.}.|.1.",
"2.= ^ 3.4.5.O @.].6.7.8.9.0.a.b.c.d.e.f.",
"g.- h.i.j.y P #.^.k.l.m.n.o.p.q.r.s.t.u.",
"v.w.x.7 y.z.A.B./.8.m.C.D.E.F.G.H.I.J.K.",
"L.M.N.8 O.P.Q./.R.9.S.D.T.U.V.W.X.Y.Z.`.",
"  _  +< 9 .+L ++@+0.#+$+%+P.&+*+=+-+;+  ",
"  >+,+#.^.'+)+!+P.~+{+]+^+/+(+_+:+<+[+  ",
"    }+|+1+2+3+4+5+6+7+8+9+*+0+a+b+c+    ",
"      d+e+f+g+h+i+j+k+l+m+n+o+p+q+r+    ",
"      s+t+u+v+w+x+y+z+A+B+C+D+E+F+      ",
"          G+H+I+J+K+L+M+N+O+P+          ",
"              Q+R+S+T+U+V+              ",
"                                        "};
