/* XPM */
static char * nee2_xpm[] = {
"20 19 278 2",
"  	c None",
". 	c #E8DC47",
"+ 	c #F9E243",
"@ 	c #FEDE42",
"# 	c #FDD943",
"$ 	c #F5CF41",
"% 	c #E0BC3D",
"& 	c #F8F45C",
"* 	c #FEF14E",
"= 	c #FAD940",
"- 	c #F5CE3D",
"; 	c #F0C93E",
"> 	c #EEC73E",
", 	c #ECC640",
"' 	c #EBC844",
") 	c #E7CA49",
"! 	c #D8C149",
"~ 	c #E4D857",
"{ 	c #FEFC5E",
"] 	c #FEE74A",
"^ 	c #F3CE3D",
"/ 	c #EBC53B",
"( 	c #E8C33C",
"_ 	c #E6C03C",
": 	c #E5BF3E",
"< 	c #E4C242",
"[ 	c #E4C647",
"} 	c #E3CA4D",
"| 	c #E0CC51",
"1 	c #CFBE4E",
"2 	c #B6A948",
"3 	c #FEFC5D",
"4 	c #FDE348",
"5 	c #EFCA3C",
"6 	c #E6C23A",
"7 	c #E3BE3A",
"8 	c #E1BC3B",
"9 	c #E0BB3D",
"0 	c #E0BF41",
"a 	c #E0C346",
"b 	c #E0C84C",
"c 	c #DECC54",
"d 	c #D7C755",
"e 	c #C1B54F",
"f 	c #A29944",
"g 	c #FEFB5E",
"h 	c #EEC93C",
"i 	c #E5C039",
"j 	c #DFBB39",
"k 	c #DFBA3A",
"l 	c #DEBA3C",
"m 	c #DEBE41",
"n 	c #DEC246",
"o 	c #DFC74C",
"p 	c #E0CB51",
"q 	c #DFCD55",
"r 	c #DCCC57",
"s 	c #D7C958",
"t 	c #CABF55",
"u 	c #A29B47",
"v 	c #F1EA56",
"w 	c #FEE84A",
"x 	c #EFCB3C",
"y 	c #E1BE39",
"z 	c #4C4013",
"A 	c #0B0902",
"B 	c #8D7626",
"C 	c #DCBB40",
"D 	c #DCC045",
"E 	c #DEC64C",
"F 	c #DFCB51",
"G 	c #948838",
"H 	c #585222",
"I 	c #BAAF4C",
"J 	c #D5CA5A",
"K 	c #CCC259",
"L 	c #B5AE51",
"M 	c #6B6730",
"N 	c #FEF34F",
"O 	c #F5D03E",
"P 	c #E8C33A",
"Q 	c #C9A933",
"R 	c #020200",
"S 	c #010100",
"T 	c #453B14",
"U 	c #DBBF45",
"V 	c #DDC54B",
"W 	c #DECA51",
"X 	c #DCCA54",
"Y 	c #121106",
"Z 	c #000000",
"` 	c #575225",
" .	c #D5CA5D",
"..	c #CAC25A",
"+.	c #B6AF52",
"@.	c #7C7637",
"#.	c #FCDD42",
"$.	c #EDC73C",
"%.	c #E4BF3B",
"&.	c #DFBB3B",
"*.	c #74611F",
"=.	c #3B3311",
"-.	c #B19B38",
";.	c #DBC44B",
">.	c #DDC850",
",.	c #DDCB54",
"'.	c #DECE58",
").	c #635D28",
"!.	c #201E0D",
"~.	c #9B9444",
"{.	c #D3CA5E",
"].	c #C6BE59",
"^.	c #AFA74E",
"/.	c #837C3A",
"(.	c #615B2A",
"_.	c #DEC53A",
":.	c #F9D33F",
"<.	c #EAC43C",
"[.	c #E2BD3B",
"}.	c #DCBC41",
"|.	c #DCC046",
"1.	c #DCC54B",
"2.	c #DCC850",
"3.	c #DED15C",
"4.	c #DDD15E",
"5.	c #DBD05F",
"6.	c #D7CE60",
"7.	c #CDC45C",
"8.	c #BEB555",
"9.	c #A69D49",
"0.	c #807837",
"a.	c #3B3719",
"b.	c #DFC13A",
"c.	c #F6CE3F",
"d.	c #E8C13D",
"e.	c #E1BD3D",
"f.	c #DFBE41",
"g.	c #DDC146",
"h.	c #DDC64C",
"i.	c #DCCB54",
"j.	c #DDCE58",
"k.	c #E1D35C",
"l.	c #E0D45F",
"m.	c #DCD260",
"n.	c #D9D061",
"o.	c #D1C95E",
"p.	c #C3BA57",
"q.	c #B5AB50",
"r.	c #9C9344",
"s.	c #756D32",
"t.	c #332F15",
"u.	c #DDBC3A",
"v.	c #F3CB40",
"w.	c #E6C13F",
"x.	c #E1C142",
"y.	c #DFC347",
"z.	c #DEC74C",
"A.	c #DECB51",
"B.	c #C3B54D",
"C.	c #BDB14E",
"D.	c #C8BD54",
"E.	c #DED461",
"F.	c #DBD363",
"G.	c #D3CB5F",
"H.	c #C8BE59",
"I.	c #BAB052",
"J.	c #ABA14A",
"K.	c #8F863D",
"L.	c #625B29",
"M.	c #27230F",
"N.	c #CFAE36",
"O.	c #F0C941",
"P.	c #E6C444",
"Q.	c #E1C548",
"R.	c #DFC84D",
"S.	c #D3C04D",
"T.	c #71682B",
"U.	c #1B190A",
"V.	c #21200E",
"W.	c #787336",
"X.	c #C6BC58",
"Y.	c #BCB253",
"Z.	c #AFA44C",
"`.	c #9C9143",
" +	c #7E7534",
".+	c #47411C",
"++	c #403917",
"@+	c #E9C845",
"#+	c #E4C849",
"$+	c #E1CA4D",
"%+	c #C2B147",
"&+	c #211E0C",
"*+	c #0C0B05",
"=+	c #635D29",
"-+	c #A19945",
";+	c #AFA74D",
">+	c #999345",
",+	c #545026",
"'+	c #060502",
")+	c #242310",
"!+	c #A29846",
"~+	c #A29745",
"{+	c #897E39",
"]+	c #675E29",
"^+	c #221F0D",
"/+	c #D2B843",
"(+	c #E1C94D",
"_+	c #867B33",
":+	c #282510",
"<+	c #C0B54F",
"[+	c #DACE5D",
"}+	c #D9CE5F",
"|+	c #D2C95E",
"1+	c #9B9344",
"2+	c #121108",
"3+	c #2F2C14",
"4+	c #8E833B",
"5+	c #72682D",
"6+	c #443D19",
"7+	c #0F0D05",
"8+	c #CEBC4B",
"9+	c #D9C853",
"0+	c #D8C956",
"a+	c #D5C858",
"b+	c #D6CB5B",
"c+	c #D5CB5D",
"d+	c #C3B957",
"e+	c #B9AF52",
"f+	c #887F3A",
"g+	c #635C29",
"h+	c #746A2E",
"i+	c #51491E",
"j+	c #171408",
"k+	c #C3B34A",
"l+	c #BEB14C",
"m+	c #CCC054",
"n+	c #CEC358",
"o+	c #CDC35A",
"p+	c #CCC45C",
"q+	c #C7BF5A",
"r+	c #BEB454",
"s+	c #B4AB50",
"t+	c #AA9F4A",
"u+	c #9C9243",
"v+	c #887E38",
"w+	c #51491F",
"x+	c #1C190A",
"y+	c #302A0F",
"z+	c #B7AC4B",
"A+	c #A09844",
"B+	c #B8AF51",
"C+	c #BBB454",
"D+	c #B9B153",
"E+	c #B1A84F",
"F+	c #A89F4A",
"G+	c #9E9445",
"H+	c #91873E",
"I+	c #7E7434",
"J+	c #453E1A",
"K+	c #161307",
"L+	c #2F290F",
"M+	c #7A7536",
"N+	c #837E3B",
"O+	c #8E873F",
"P+	c #8D853E",
"Q+	c #857D3A",
"R+	c #797134",
"S+	c #665E2A",
"T+	c #49431D",
"U+	c #25210E",
"V+	c #61551F",
"W+	c #6C662F",
"X+	c #3E3A1B",
"Y+	c #282511",
"Z+	c #1E1C0C",
"`+	c #191609",
" @	c #332E13",
".@	c #6B5F25",
"              . + @ # $ %               ",
"          & * = - ; > , ' ) !           ",
"      ~ { ] ^ / ( _ : < [ } | 1 2       ",
"      3 4 5 6 7 8 9 0 a b | c d e f     ",
"    g 4 h i j k l m n o p q r s t u     ",
"  v w x y z A B C D E F G H I J K L M   ",
"  N O P Q R S T U V W X Y Z `  ...+.@.  ",
"  #.$.%.&.*.=.-.;.>.,.'.).!.~.{.].^./.(.",
"_.:.<.[.l }.|.1.2.X '.3.4.5.6.7.8.9.0.a.",
"b.c.d.e.f.g.h.W i.j.k.l.m.n.o.p.q.r.s.t.",
"u.v.w.x.y.z.A.,.B.C.D.E.F.G.H.I.J.K.L.M.",
"N.O.P.Q.R.S.T.U.S S S V.W.X.Y.Z.`. +.+++",
"  @+#+$+%+&+*+=+-+;+>+,+'+)+!+~+{+]+^+  ",
"  /+(+F _+:+<+[+}+6.|+H.1+2+3+4+5+6+7+  ",
"    8+9+0+a+b+c+G.7.d+e+Z.f+g+h+i+j+    ",
"    k+l+m+n+o+p+q+r+s+t+u+v+5+w+x+y+    ",
"      z+A+B+C+D+E+F+G+H+I+]+J+K+L+      ",
"          M+N+O+P+Q+R+S+T+U+7+V+        ",
"              W+X+Y+Z+`+ @.@            "};
