/* XPM */
static char *stock_right_arrow_xpm[] = {
/* columns rows colors chars-per-pixel */
"24 24 49 1",
"  c Gray0",
". c #181818181818",
"X c Gray17",
"o c #373759592f2f",
"O c #3a3a59593434",
"+ c #3b3b5e5e3131",
"@ c #3f3f65653434",
"# c #444458584040",
"$ c #4b4b70704040",
"% c #53537c7c4949",
"& c #595981814f4f",
"* c #5d5d85855454",
"= c #747498986868",
"- c #74749a9a6b6b",
"; c #75759b9b6c6c",
": c #75759c9c6d6d",
"> c #7e7ea4a47676",
", c #8080a7a77676",
"< c #8484a7a77878",
"1 c #8282a8a87b7b",
"2 c #8383aaaa7a7a",
"3 c #8383aaaa7c7c",
"4 c #8585a8a87979",
"5 c #8686a9a97c7c",
"6 c #8787acac7d7d",
"7 c #8888acac8080",
"8 c #9090b3b38787",
"9 c #9a9abbbb8f8f",
"0 c #9d9dbbbb9090",
"q c #b1b1c7c7acac",
"w c #c9c9d8d8c5c5",
"e c #cbcbdadac7c7",
"r c #cecedcdccbcb",
"t c #d4d4e0e0d1d1",
"y c #d7d7e3e3d5d5",
"u c #dedee7e7dcdc",
"i c #e1e1eaeadfdf",
"p c #e4e4ebebe2e2",
"a c #e5e5ecece3e3",
"s c #ebebf1f1eaea",
"d c #ededf2f2ebeb",
"f c #eeeef3f3eded",
"g c #efeff3f3eeee",
"h c #f0f0f4f4efef",
"j c #f1f1f5f5f0f0",
"k c #f3f3f7f7f3f3",
"l c #f4f4f7f7f4f4",
"z c Gray100",
"x c None",
/* pixels */
"xxxxxxxxxxxxxxxxxxxxxxxx",
"xxxxxxxxxxxxxxxxxxxxxxxx",
"xxxxxxxxxxxxxxxxxxxxxxxx",
"xxxxxxxxxxxxxxxxxxxxxxxx",
"xxxxxxxxxxxxxxxxxxxxxxxx",
"xxxxxx  xxxxxxxxxxxxxxxx",
"xxxxxx i  xxxxxxxxxxxxxx",
"xxxxxx zht  xxxxxxxxxxxx",
"xxxxxx zkdhr  xxxxxxxxxx",
"xxxxxx zljgsjw  xxxxxxxx",
"xxxxxx zgggssahe. xxxxxx",
"xxxxxxXzgggspuyufq  xxxx",
"xxxxxx 073734><;&O  xxxx",
"xxxxxx 9261<5:%#  xxxxxx",
"xxxxxx 96,4=%$  xxxxxxxx",
"xxxxxx 8,-%+  xxxxxxxxxx",
"xxxxxx 3*o  xxxxxxxxxxxx",
"xxxxxx @  xxxxxxxxxxxxxx",
"xxxxxx  xxxxxxxxxxxxxxxx",
"xxxxxxxxxxxxxxxxxxxxxxxx",
"xxxxxxxxxxxxxxxxxxxxxxxx",
"xxxxxxxxxxxxxxxxxxxxxxxx",
"xxxxxxxxxxxxxxxxxxxxxxxx",
"xxxxxxxxxxxxxxxxxxxxxxxx"
};
